…
It's worth remembering that everything after the `#` on each line above is just a comment for the reader, and is ignored by R. We'll see later that the loading of a single package (called `tidyverse`) gives us both the `dplyr` and `ggplot2` packages, as well as several other useful things.

Next, let's take the `penguins` data from the `palmerpenguins` package, and identify those observations which have complete data (so, no missing values) in four variables of interest. We'll store that result in a new data frame (think of this as a data set) called `new_penguins` and then take a look at that result using the following code.


```r
new_penguins <- penguins %>%
    filter(complete.cases(flipper_length_mm, body_mass_g, species, sex))

new_penguins
```

```
# A tibble: 333 x 8
   species island    bill_length_mm bill_depth_mm
   <fct>   <fct>              <dbl>         <dbl>
 1 Adelie  Torgersen           39.1          18.7
 2 Adelie  Torgersen           39.5          17.4
 3 Adelie  Torgersen           40.3          18  
 4 Adelie  Torgersen           36.7          19.3
 5 Adelie  Torgersen           39.3          20.6
 6 Adelie  Torgersen           38.9          17.8
 7 Adelie  Torgersen           39.2          19.6
 8 Adelie  Torgersen           41.1          17.6
 9 Adelie  Torgersen           38.6          21.2
10 Adelie  Torgersen           34.6          21.1
# ... with 323 more rows, and 4 more variables:
#   flipper_length_mm <int>, body_mass_g <int>, sex <fct>,
#   year <int>
```
…
