…
The resulting `nh_temp` data frame has 1700 rows and 16 columns.


```r
nh_temp
```

```
# A tibble: 1,700 x 16
      ID Sex      Age Height Weight Race     Education   BMI
   <int> <fct>  <int>  <dbl>  <dbl> <fct>    <fct>     <dbl>
 1 62172 female    43   172    98.6 Black    High Sch~  33.3
 2 62176 female    34   172.   68.7 White    College ~  23.3
 3 62180 male      35   179.   89   White    College ~  27.9
 4 62199 male      57   186    96.9 White    College ~  28  
 5 62205 male      28   171.   84.8 White    College ~  28.9
 6 62206 female    35   167.   81.5 White    Some Col~  29.1
 7 62208 male      38   169.   63.2 Hispanic Some Col~  22.2
 8 62209 female    62   143.   53.5 Mexican  8th Grade  26  
 9 62220 female    31   167.  113.  Black    College ~  40.4
10 62222 male      32   179    80.1 White    College ~  25  
# ... with 1,690 more rows, and 8 more variables:
#   SBP <int>, DBP <int>, Pulse <int>, PhysActive <fct>,
#   Smoke100 <fct>, SleepTrouble <fct>,
#   MaritalStatus <fct>, HealthGen <fct>
```
…
```r
set.seed(431002) 
# use set.seed to ensure that we all get the same random sample 

nh_adult750 <- slice_sample(nh_temp, n = 750, replace = F) 

nh_adult750
```

```
# A tibble: 750 x 16
      ID Sex      Age Height Weight Race     Education   BMI
   <int> <fct>  <int>  <dbl>  <dbl> <fct>    <fct>     <dbl>
 1 68648 female    30   181.   67.1 White    College ~  20.4
 2 67200 male      30   180.   86.6 White    College ~  26.7
 3 66404 female    35   160.   71.1 White    College ~  27.8
 4 70535 male      40   177.   82   White    College ~  26.3
 5 65308 female    54   151.   60.6 Mexican  8th Grade  26.6
 6 67392 male      41   171.   90.7 Hispanic College ~  31.2
 7 63218 male      35   163.   81   Mexican  8th Grade  30.3
 8 65879 female    32   160.   66.4 Mexican  College ~  25.9
 9 63617 male      29   189.   83.3 White    College ~  23.2
10 64720 male      29   174.   62.3 Black    College ~  20.6
# ... with 740 more rows, and 8 more variables: SBP <int>,
#   DBP <int>, Pulse <int>, PhysActive <fct>,
#   Smoke100 <fct>, SleepTrouble <fct>,
#   MaritalStatus <fct>, HealthGen <fct>
```
…
Now we see that 636 observations, or 84.8% of all cases have no missing data.

We can use `miss_case_summary()` to identify cases with missing data, as well.


```r
miss_case_summary(nh_adult750)
```

```
# A tibble: 750 x 3
    case n_miss pct_miss
   <int>  <int>    <dbl>
 1   342      7     43.8
 2   606      6     37.5
 3   157      4     25  
 4   169      4     25  
 5   204      4     25  
 6   234      4     25  
 7   323      4     25  
 8   415      4     25  
 9   478      4     25  
10   483      4     25  
# ... with 740 more rows
```
…
OK. Now, let's create a second sample, called `nh_adult500cc`, where now, we will select 500 adults with complete data on all of the variables of interest, and using a different random seed. The `cc` here stands for complete cases.


```r
set.seed(431003) 
# use set.seed to ensure that we all get the same random sample 

nh_adult500cc <- slice_sample(nh_temp2, n = 500, replace = F) 

nh_adult500cc
```

```
# A tibble: 500 x 16
      ID Sex      Age Height Weight Race     Education   BMI
   <int> <fct>  <int>  <dbl>  <dbl> <fct>    <fct>     <dbl>
 1 64079 female    25   159.   86.2 Hispanic Some Col~  34.2
 2 64374 female    52   169    65.5 Asian    College ~  22.9
 3 71875 male      42   182.   94.1 Black    College ~  28.5
 4 66396 female    46   161.  107.  Asian    8th Grade  41.2
 5 64315 female    52   161.   64.5 White    9 - 11th~  24.9
 6 64015 male      32   168.   82.3 Mexican  Some Col~  29  
 7 63590 male      21   181.   98.3 Black    Some Col~  29.9
 8 70893 female    30   171.   65.7 White    9 - 11th~  22.5
 9 70828 male      26   178.  100.  White    Some Col~  31.5
10 67930 male      59   172.   91.7 Mexican  College ~  31  
# ... with 490 more rows, and 8 more variables: SBP <int>,
#   DBP <int>, Pulse <int>, PhysActive <fct>,
#   Smoke100 <fct>, SleepTrouble <fct>,
#   MaritalStatus <fct>, HealthGen <fct>
```
…
