…
set.seed(431002) 
# use set.seed to ensure that we all get the same random sample 

nh_adults <- sample_n(nh_temp, size = 500) 

nh_adults
```

```
# A tibble: 500 x 14
      ID Sex     Age Race  Education   BMI   SBP   DBP Pulse
   <int> <fct> <int> <fct> <fct>     <dbl> <int> <int> <int>
 1 71531 male     35 White Some Col~  22.4   143    90    84
 2 68613 fema~    61 White Some Col~  27.7   119    86   112
 3 67064 male     31 White College ~  26.6   110    76    86
 4 63924 fema~    29 Black High Sch~  41.9    98    56    74
 5 62840 male     60 White 8th Grade  35.8   127     0   110
 6 68058 male     50 White Some Col~  30.6    NA    NA    NA
 7 68936 fema~    36 Black High Sch~  30.5   119    69    60
 8 71189 male     51 White College ~  25.6   112    70    54
 9 69936 fema~    54 Asian College ~  21.8   126    80    78
10 70687 male     59 White College ~  25.5   149    89    62
# ... with 490 more rows, and 5 more variables:
#   PhysActive <fct>, Smoke100 <fct>, SleepTrouble <fct>,
#   MaritalStatus <fct>, HealthGen <fct>
```
…
