…
And again, the Mean is just the Sum (30616), divided by the number of non-missing values of Age (750), or 40.8213333.

The Median is the middle value when the data are sorted in order. When we have an odd number of values, this is sufficient. When we have an even number, as in this case, we take the mean of the two middle values. We could sort and list all 500 Ages, if we wanted to do so.


```r
nh_750 %>% select(Age) %>% 
    arrange(Age)
```

```
# A tibble: 750 x 1
     Age
   <int>
 1    21
 2    21
 3    21
 4    21
 5    21
 6    21
 7    21
 8    21
 9    21
10    21
# ... with 740 more rows
```
…
### The Mode of a Quantitative Variable

One other less common measure of the center of a quantitative variable's distribution is its most frequently observed value, referred to as the **mode**. This measure is only appropriate for discrete variables, be they quantitative or categorical. To find the mode, we usually tabulate the data, and then sort by the counts of the numbers of observations.


```r
nh_750 %>%
    group_by(Age) %>%
    summarise(count = n()) %>%
    arrange(desc(count)) 
```

```
# A tibble: 44 x 2
     Age count
   <int> <int>
 1    32    28
 2    36    26
 3    50    26
 4    30    24
 5    33    24
 6    24    23
 7    21    22
 8    22    22
 9    23    22
10    28    20
# ... with 34 more rows
```
…
