…
```
[1] 1518   45
```

There are 1518 rows (subjects) and 45 columns (variables), by which I mean that there are 1518 kids in the `nnyfs` data frame, and we have 45 pieces of information on each subject. 
So, what do we have, exactly?


```r
nnyfs # this is a tibble, has some nice features in a print-out like this
```

```
# A tibble: 1,518 x 45
    SEQN sex    age_child race_eth       educ_child language
   <dbl> <chr>      <dbl> <chr>               <dbl> <chr>   
 1 71917 Female        15 3_Black Non-H~          9 English 
 2 71918 Female         8 3_Black Non-H~          2 English 
 3 71919 Female        14 2_White Non-H~          8 English 
 4 71920 Female        15 2_White Non-H~          8 English 
 5 71921 Male           3 2_White Non-H~         NA English 
 6 71922 Male          12 1_Hispanic              6 English 
 7 71923 Male          12 2_White Non-H~          5 English 
 8 71924 Female         8 4_Other Race/~          2 English 
 9 71925 Male           7 1_Hispanic              0 English 
10 71926 Male           8 3_Black Non-H~          2 English 
# ... with 1,508 more rows, and 39 more variables:
#   sampling_wt <dbl>, income_pov <dbl>, age_adult <dbl>,
#   educ_adult <chr>, respondent <chr>, salt_used <chr>,
#   energy <dbl>, protein <dbl>, sugar <dbl>, fat <dbl>,
#   diet_yesterday <chr>, water <dbl>, plank_time <dbl>,
#   height <dbl>, weight <dbl>, bmi <dbl>, bmi_cat <chr>,
#   arm_length <dbl>, waist <dbl>, arm_circ <dbl>, ...
```
…
