…
```

i Use `spec()` to retrieve the full column specification for this data.
i Specify the column types or set `show_col_types = FALSE` to quiet this message.
```

```r
crabs
```

```
# A tibble: 38 x 4
    crab species              force height
   <dbl> <chr>                <dbl>  <dbl>
 1     1 Hemigraspus nudus      4      8  
 2     2 Lophopanopeus bellus  15.1    7.9
 3     3 Cancer productus       5      6.7
 4     4 Lophopanopeus bellus   2.9    6.6
 5     5 Hemigraspus nudus      3.2    5  
 6     6 Hemigraspus nudus      9.5    7.9
 7     7 Cancer productus      22.5    9.4
 8     8 Hemigraspus nudus      7.4    8.3
 9     9 Cancer productus      14.6   11.2
10    10 Lophopanopeus bellus   8.7    8.6
# ... with 28 more rows
```
…
```r
loglogdat <- tibble(height = crabs$height, force = exp(predict(crab_loglog)))
```

A cleaner way to do this might be to use the `augment` function directly from `broom`:


```r
augment(crab_loglog)
```

```
# A tibble: 38 x 7
   `log(force)` `log(height)` .fitted   .hat .sigma  .cooksd
          <dbl>         <dbl>   <dbl>  <dbl>  <dbl>    <dbl>
 1         1.39          2.08   2.01  0.0280  0.676 1.28e- 2
 2         2.71          2.07   1.98  0.0287  0.673 1.79e- 2
 3         1.61          1.90   1.61  0.0499  0.684 8.06e-10
 4         1.06          1.89   1.58  0.0530  0.679 1.69e- 2
 5         1.16          1.61   0.945 0.142   0.683 1.01e- 2
 6         2.25          2.07   1.98  0.0287  0.683 2.39e- 3
 7         3.11          2.24   2.38  0.0301  0.673 1.90e- 2
 8         2.00          2.12   2.10  0.0266  0.684 2.75e- 4
 9         2.68          2.42   2.78  0.0561  0.684 6.30e- 4
10         2.16          2.15   2.18  0.0263  0.684 5.34e- 6
# ... with 28 more rows, and 1 more variable:
#   .std.resid <dbl>
```
…
