Chapter 25 Analysis of Variance | Data Science for Biological, Medical and Health Research: Notes for PQHS/CRSP/MPHP 431
…
        Data Science for Biological, Medical and Health Research: Notes for PQHS/CRSP/MPHP 431

      Show table of contents

25 Analysis of Variance

Recall the National Youth Fitness Survey, which we explored a small piece of in some detail earlier in these notes. We’ll look at a different part of the same survey here - specifically the 280 children whose data are captured in the nyfs2 file.

nyfs2 <- read_csv("data/nyfs2.csv",
                  show_col_types = FALSE)

nyfs2

# A tibble: 280 x 21
   subject.id sex    age.exam race.eth   english income.cat3
        <dbl> <chr>     <dbl> <chr>        <dbl> <chr>      
 1      73228 Male          4 5 Other o~       1 Low (below~
 2      72393 Male          4 2 Non-His~       1 Low (below~
 3      73303 Male          3 2 Non-His~       1 Low (below~
 4      72786 Male          5 1 Non-His~       1 Low (below~
 5      73048 Male          3 2 Non-His~       1 Low (below~
 6      72556 Female        4 2 Non-His~       1 Low (below~
 7      72580 Female        5 2 Non-His~       1 Low (below~
 8      72532 Female        4 4 Other H~       0 Low (below~
 9      73012 Male          4 1 Non-His~       1 Low (below~
10      72099 Male          6 1 Non-His~       1 Low (below~
# ... with 270 more rows, and 15 more variables:
#   income.detail <chr>, inc.to.pov <dbl>, weight.kg <dbl>,
#   height.cm <dbl>, bmi <dbl>, bmi.group <dbl>,
#   bmi.cat <chr>, arm.length <dbl>, arm.circ <dbl>,
#   waist.circ <dbl>, calf.circ <dbl>, calf.skinfold <dbl>,
#   triceps.skinfold <dbl>, subscap.skinfold <dbl>,
#   GMQ <dbl>
…
