Chapter 3 NHANES: Initial Exploring | Data Science for Biological, Medical and Health Research: Notes for PQHS/CRSP/MPHP 431
…
For the moment, let’s gather a random sample of 1,000 responses from the 10000 rows listed in the NHANES data frame, and then identify several variables of interest about those subjects1. Some of the motivation for this example came from a Figure in Baumer, Kaplan, and Horton (2017).

# library(NHANES) # already loaded NHANES package/library of functions, data

set.seed(431001) 
# use set.seed to ensure that we all get the same random sample 
# of 1,000 NHANES subjects in our nh_data collection

nh_dat1 <- 
    slice_sample(NHANES, n = 1000, replace = FALSE) %>%
    select(ID, SurveyYr, Gender, Age, Height)

nh_dat1

# A tibble: 1,000 x 5
      ID SurveyYr Gender   Age Height
   <int> <fct>    <fct>  <int>  <dbl>
 1 69638 2011_12  female     5   106.
 2 70782 2011_12  male      64   176.
 3 52408 2009_10  female    54   162.
 4 59031 2009_10  female    15   155.
 5 64530 2011_12  male      53   185.
 6 71040 2011_12  male      63   169.
 7 55186 2009_10  female    30   168.
 8 60211 2009_10  male       5   103.
 9 55730 2009_10  male      66   161.
10 68229 2011_12  female    36   170.
# ... with 990 more rows
…
That’s better. How many observations do we have now? We could use dim to find out the number of rows and columns in this new data set.

dim(nh_dat2)

[1] 963   5

Or, we could simply list the data set and read off the result.

nh_dat2

# A tibble: 963 x 5
      ID SurveyYr Sex      Age Height
   <int> <fct>    <fct>  <int>  <dbl>
 1 69638 2011_12  female     5   106.
 2 70782 2011_12  male      64   176.
 3 52408 2009_10  female    54   162.
 4 59031 2009_10  female    15   155.
 5 64530 2011_12  male      53   185.
 6 71040 2011_12  male      63   169.
 7 55186 2009_10  female    30   168.
 8 60211 2009_10  male       5   103.
 9 55730 2009_10  male      66   161.
10 68229 2011_12  female    36   170.
# ... with 953 more rows
…
