Chapter 12 Linearizing Transformations | Data Science for Biological, Medical and Health Research: Notes for PQHS/CRSP/MPHP 431
…
While the Pearson correlation is still quite strong, note that the loess smooth (shown in blue) bends up from the straight line model (shown in red) at both the low and high end of arm length.

Note also the use of alpha = 0.2 to show the points with greater transparency than they would be shown normally (the default setting is no transparency with alpha = 1.)

12.5.2 Plotting the Residuals

Now, let’s build a plot of residuals from the straight line model plotted against the arm length. We can obtain these residuals using the augment() function from the broom package.

m1 <- lm(arm_circ ~ arm_length, data = nnyfs_c)

nnyfs_c_aug1 <- augment(m1, data = nnyfs_c)

nnyfs_c_aug1

# A tibble: 1,511 x 9
    SEQN arm_circ arm_length .fitted .resid     .hat .sigma
   <dbl>    <dbl>      <dbl>   <dbl>  <dbl>    <dbl>  <dbl>
 1 71918     25.4       27.7    21.9  3.51  0.000695   3.21
 2 71919     26         38.4    30.4 -4.38  0.00253    3.21
 3 71920     37.9       35.9    28.4  9.50  0.00167    3.20
 4 71921     15.1       18.3    14.4  0.669 0.00304    3.21
 5 71922     29.5       34.2    27.0  2.45  0.00124    3.21
 6 71923     27.9       33      26.1  1.80  0.00100    3.21
 7 71924     17.6       26.5    20.9 -3.34  0.000788   3.21
 8 71925     17.7       24.2    19.1 -1.41  0.00113    3.21
 9 71926     19.9       26      20.5 -0.642 0.000844   3.21
10 71927     17.3       20      15.8  1.52  0.00234    3.21
# ... with 1,501 more rows, and 2 more variables:
#   .cooksd <dbl>, .std.resid <dbl>
…
