Chapter 4 NHANES: A New Sample | Data Science for Biological, Medical and Health Research: Notes for PQHS/CRSP/MPHP 431
…
set.seed(431004)

nh_4 <- NHANES %>%
    filter(Age > 20 & Age < 80) %>%
    select(ID, SurveyYr, Gender, Age, Height, 
           Pulse, BPSysAve, SleepTrouble, PhysActive,
           MaritalStatus, HealthGen) %>%
    rename(Sex = Gender, SBP = BPSysAve) %>%
    filter(complete.cases(.)) %>%
    distinct() %>%
    slice_sample(n = 1000, replace = FALSE)

nh_4

# A tibble: 1,000 x 11
      ID SurveyYr Sex      Age Height Pulse   SBP
   <int> <fct>    <fct>  <int>  <dbl> <int> <int>
 1 54401 2009_10  male      52   171.   100   106
 2 52249 2009_10  male      43   190.    78   120
 3 63461 2011_12  female    21   161     86   111
 4 68429 2011_12  male      27   190.    86   113
 5 52661 2009_10  male      71   170.    66   120
 6 55949 2009_10  female    78   160.    58   157
 7 53913 2009_10  female    75   161.    58   124
 8 63852 2011_12  male      50   174.    50   104
 9 68833 2011_12  male      41   160.    62   116
10 61941 2009_10  male      22   172     88   112
# ... with 990 more rows, and 4 more variables:
#   SleepTrouble <fct>, PhysActive <fct>,
#   MaritalStatus <fct>, HealthGen <fct>
…
