Chapter 15 The WCGS | Data Science for Biological, Medical and Health Research: Notes for PQHS/CRSP/MPHP 431
…
15.1 The Western Collaborative Group Study (wcgs) data set

Vittinghoff et al.33 explore data from the Western Collaborative Group Study (WCGS) in great detail34. We’ll touch lightly on some key issues in this Chapter.

The Western Collaborative Group Study (WCGS) was designed to test the hypothesis that the so-called Type A behavior pattern (TABP) - “characterized particularly by excessive drive, aggressiveness, and ambition, frequently in association with a relatively greater preoccupation with competitive activity, vocational deadlines, and similar pressures” - is a cause of coronary heart disease (CHD). Two additional goals, developed later in the study, were (1) to investigate the comparability of formulas developed in WCGS and in the Framingham Study (FS) for prediction of CHD risk, and (2) to determine how addition of TABP to an existing multivariate prediction formula affects ability to select subjects for intervention programs.

The study enrolled over 3,000 men ages 39-59 who were employed in San Francisco or Los Angeles, during 1960 and 1961.

wcgs <- read_csv("data/wcgs.csv") %>%
    mutate(across(where(is.character), as_factor))

wcgs

# A tibble: 3,154 x 22
      id   age agec  height weight lnwght wghtcat   bmi
   <dbl> <dbl> <fct>  <dbl>  <dbl>  <dbl> <fct>   <dbl>
 1  2343    50 46-50     67    200   5.30 170-200  31.3
 2  3656    51 51-55     73    192   5.26 170-200  25.3
 3  3526    59 56-60     70    200   5.30 170-200  28.7
 4 22057    51 51-55     69    150   5.01 140-170  22.1
 5 12927    44 41-45     71    160   5.08 140-170  22.3
 6 16029    47 46-50     64    158   5.06 140-170  27.1
 7  3894    40 35-40     70    162   5.09 140-170  23.2
 8 11389    41 41-45     70    160   5.08 140-170  23.0
 9 12681    50 46-50     71    195   5.27 170-200  27.2
10 10005    43 41-45     68    187   5.23 170-200  28.4
# ... with 3,144 more rows, and 14 more variables:
#   sbp <dbl>, lnsbp <dbl>, dbp <dbl>, chol <dbl>,
#   behpat <fct>, dibpat <fct>, smoke <fct>, ncigs <dbl>,
#   arcus <dbl>, chd69 <fct>, typchd69 <dbl>,
#   time169 <dbl>, t1 <dbl>, uni <dbl>
…
